{
	"1230966362": "ffffffffo.cdata_processed/terrain2",
	"1437006790": "maps/landscape/detail/sand_NM.dds",
	"2216829733": "",
	"2456482202": "ffff0000o.cdata_processed/terrain2",
	"3070784986": "00000000o.cdata_processed/terrain2",
	"3447824282": "0000ffffo.cdata_processed/terrain2"
}